/* XPM */
static char *Cut planes_xpm[] = {
/* width height num_colors chars_per_pixel */
"    60    60      256            2",
/* colors */
"`` c #040204",
"`. c #06b910",
"`# c #c78404",
"`a c #07c410",
"`b c #c30304",
"`c c #0544b9",
"`d c #04c48e",
"`e c #0703ba",
"`f c #0424b9",
"`g c #49c604",
"`h c #0483c9",
"`i c #05e212",
"`j c #370290",
"`k c #04e58c",
"`l c #82c204",
"`m c #04a9ba",
"`n c #0703d4",
"`o c #04c452",
"`p c #0464c6",
"`q c #08c4d0",
"`r c #bfbd08",
"`s c #c64404",
"`t c #05a4cb",
"`u c #29c604",
"`v c #0514d3",
"`w c #330339",
"`x c #0435c5",
"`y c #0454c5",
"`z c #46bd04",
"`A c #06d511",
"`B c #0474c4",
"`C c #04e04c",
"`D c #80da04",
"`E c #04d48f",
"`F c #0494c7",
"`G c #c02404",
"`H c #2d1839",
"`I c #0414be",
"`J c #07e7ca",
"`K c #2002d3",
"`L c #06d4cd",
"`M c #c69f05",
"`N c #c0de0c",
"`O c #c36604",
"`P c #04bc50",
"`Q c #05b4d1",
"`R c #3f02c2",
"`S c #04d74d",
"`T c #52e104",
"`U c #330561",
"`V c #2102a2",
"`W c #04c530",
"`X c #a1bf06",
"`Y c #0424e8",
"`Z c #04ba91",
"`0 c #0a02f3",
"`1 c #dfbb04",
"`2 c #0454ea",
"`3 c #28bc04",
"`4 c #3adf04",
"`5 c #0435e9",
"`6 c #0464e8",
"`7 c #05c4b2",
"`8 c #520293",
".` c #68c704",
".. c #0495e9",
".# c #07b4b7",
".a c #d78404",
".b c #0444ed",
".c c #0485ef",
".d c #07eb0f",
".e c #04c570",
".f c #08c4f0",
".g c #0473eb",
".h c #04bd32",
".i c #18c304",
".j c #c51304",
".k c #e02a04",
".l c #04f68c",
".m c #c1cd08",
".n c #c95404",
".o c #04f259",
".p c #05d4b0",
".q c #05f3ca",
".r c #04b5ef",
".s c #321032",
".t c #04d4ec",
".u c #c47504",
".v c #0613f2",
".w c #dca104",
".x c #040cb9",
".y c #040cd5",
".z c #04a5ea",
".A c #18b404",
".B c #c53404",
".C c #06cc11",
".D c #29d204",
".E c #04e072",
".F c #2002b5",
".G c #242124",
".H c #04e231",
".I c #3902ab",
".J c #05e3b0",
".K c #aed906",
".L c #44026c",
".M c #a0cd05",
".N c #0429cb",
".O c #82ce05",
".P c #06ccd0",
".Q c #045cc5",
".R c #04d76f",
".S c #06bcb4",
".T c #048cc8",
".U c #043cc5",
".V c #04d631",
".W c #2102f0",
".X c #06bccc",
".Y c #c19604",
".Z c #0447cc",
".0 c #046cc4",
".1 c #049cc5",
".2 c #1ce6f4",
".3 c #dad906",
".4 c #4d02c0",
".5 c #042ced",
".6 c #07be0a",
".7 c #da0304",
".8 c #1402ba",
"#` c #45d104",
"#. c #67de04",
"## c #69bd04",
"#a c #24022c",
"#b c #d74504",
"#c c #dc6204",
"#d c #d71504",
"#e c #df7504",
"#f c #c2b009",
"#g c #e6d009",
"#h c #d69704",
"#i c #dc3a04",
"#j c #d4b104",
"#k c #04ed34",
"#l c #9ee604",
"#m c #82e904",
"#n c #e15604",
"#o c #101210",
"#p c #6ad004",
"#q c #48ec04",
"#r c #3e024d",
"#s c #07f2b7",
"#t c #b2c205",
"#u c #04bb70",
"#v c #d0bc06",
"#w c #d12804",
"#x c #c1e804",
"#y c #15e005",
"#z c #17d504",
"#A c #dae40a",
"#B c #74ea04",
"#C c #222722",
"#D c #94bf05",
"#E c #cfcd07",
"#F c #adcc05",
"#G c #8fcd05",
"#H c #b1ea07",
"#I c #08ddd1",
"#J c #08dceb",
"#K c #58c604",
"#L c #36c604",
"#M c #92da04",
"#N c #3ad104",
"#O c #5ad404",
"#P c #90e404",
"#Q c #18ea04",
"#R c #3802da",
"#S c #3c0272",
"#T c #040cf5",
"#U c #4f02ad",
"#V c #59bc04",
"#W c #59ed04",
"#X c #330549",
"#Y c #09e6e4",
"#Z c #c9a804",
"#0 c #241224",
"#1 c #c58c04",
"#2 c #c40c04",
"#3 c #c24c04",
"#4 c #047bc6",
"#5 c #c76e04",
"#6 c #045ceb",
"#7 c #043ce9",
"#8 c #046de5",
"a` c #049ce4",
"a. c #044ce8",
"a# c #047ce6",
"aa c #c21b04",
"ab c #ca5c04",
"ac c #c57d04",
"ad c #d8a904",
"ae c #c43c04",
"af c #d60c04",
"ag c #da4d04",
"ah c #d96b04",
"ai c #e11e04",
"aj c #d77d04",
"ak c #140a1c",
"al c #05cc91",
"am c #04adcb",
"an c #041cd9",
"ao c #2c1f31",
"ap c #04ccab",
"aq c #04cbeb",
"ar c #04dbae",
"as c #06bcef",
"at c #04ecb2",
"au c #310f4c",
"av c #04ec93",
"aw c #04cb4f",
"ax c #04e850",
"ay c #04dd8c",
"az c #041bbf",
"aA c #04cc32",
"aB c #048ced",
"aC c #04cb6f",
"aD c #04adef",
"aE c #04e86c",
"aF c #ccda04",
"aG c #340276",
"aH c #08f1e0",
"aI c #ccb307",
"aJ c #044bb9",
"aK c #041df6",
"aL c #1402d3",
"aM c #2c029d",
"aN c #14d2fc",
"aO c #2c02b3",
"aP c #e4da09",
"aQ c #c12d05",
"aR c #1abc05",
"aS c #d0c308",
"aT c #440293",
"aU c #2c02d6",
"aV c #34bc04",
"aW c #74c904",
"aX c #e48404",
"aY c #04f270",
"aZ c #cc9604",
"a0 c #74de04",
"a1 c #e49604",
"a2 c #ec3a04",
"a3 c #e4b204",
"a4 c #74cf04",
"a5 c #042bbb",
"a6 c #e4c404",
"a7 c #34e804",
"a8 c #18cc04",
/* pixels */
"`H`H#0.s.s.s.s`w#X#X#X#r`U#S.L#S`j`j`j.I.I`R.I.I.I`R`R`R`R`R#U#U#U`8`8`8`8`8`8`8`8#U#U#U`R`R`R`R`R`R.IaTaTaTaTaT`j`j`j`j",
"#a#a`w`w`w`w#r#r#r.L.L.L.LaTaTaT`j`j.I.IaOaO`K`K`KaUaUaUaU`R`R`R#U#U`8`8`8`8#U#U#U.4`R`R#RaUaU#R#R#R`R.IaTaTaT.I`j`j.I.I",
"`w`w`w`w#X#r#r.L.L.L.L.LaTaT`j.I.IaO`K`KaLaL`n`n`0`0`0aL.W.W#R#R`R`R#U#U#U#U#U.4.4`R#R#R.W.W.W.WaL`K`K`KaOaO.I.I.I.I.IaO",
"`w`w`w#X#r#r.L.L.L.L.LaT`j.I.IaO`K`K`n`n`n`n`v`v.v.v.y`0`0`0.WaU#R`R.4`R#U#U.4.4`R#RaU.W`0`0`n`n`n`naL`K`K`KaOaO.IaOaOaO",
"`w`w#X#r#r#r.L.L.L#S`j`jaO.F.F.8`e`n`van`Y.N`5`5#7`5.5.5`Y.v`0`0.W#R`R`R.4.4.4`R#RaU.W`0#TaK`Y`Y`Yan.y`n`naL`K.FaOaOaO.F",
"`w`w#r#r#r.L.L.L.L`j`jaM.FaL`n`n`van.5#7a.`2#6`6`6`6#6`2a.`5aK`0`0.W#R`R.4.4`R#R#R.W`0#T`Y`5.b.b.b`5.5an.y`naL`K`K.F.F.F",
"`w#r#r#r.L.L.L`j`j`j.I.F.8`n.yan`x.Z.Q`p#4`haB........aBa#`6.b.5#T`0aU#R#R`R#R#R.W`0#T.5.b#6`6#8`6#6a.#7an.y`n`n`K`K.F.F",
"#X#r#r#r.L.L`j`j`jaO.F.8`e`v.N.Z.Q.0`h`F`t`Q`q.PaqaqaqasaD..#8`2`5#T`0.WaU#R#R.W`0`0aK#7`6a#aBaB.ca##8`2#7.N.y`naL`K`K`K",
"#r#r#r#r#S#S`j`jaM.F`e.yan.U`y.0`ha``Q.P`L#I`J.J`J`J`J`J#Y.taD.c#6#7#T`0.WaUaU.W`0.v#7#6.ca`aD.raD.z..a##6.U`Y.y`eaL`K.8",
"#r#r#r#S#S`j`jaO.F`n.y.N.U`y`B`F`Q.P.pararayay.E.E`k`kav.qaH#JasaB`2.5#T`0.W.W`0`0`Y`2.ga`.r.t#J.t.P`Q.1.g`y.N`v`naL.8`K",
"#r#r.L#S#S`jaM.F`e`e.N.Z`p`h`t`q.P.p`E.R.R`S.H.H.H.H.HaxaEav.q#Yas.ca.aK`0`0.W`0.v`5`6..as#J#Y`J#Y#I`L`QaB`p.Zan`n`n.8.8",
"#r#r.L#S#S`j`V.8`eaz.Z.0.T`t`q.p`E.R`S.V`A`A`A#y#y#y`i`i.Hax.l.q#YaD.g#7.v`0`0`0aK.ba#aD#JaHat.J.Jar#I.Pa``B.Z.N`n`n`e`e",
"#r.L.L#S`j.I.F`e`v.U`p`h`Q`q.p.R`S.V.C#z.D`4`T`T`T`T#qa7#Q.d.o.l.qaN.ca..5#T`0.v`5#6..aqaHatav`k`k`kar`L`Q`h`y.N`n`e`e`e",
".L.L.L`j`j.F`e`I.NaJ#4am`7alaC`SaA.C.D#`#Oa0#M#l#l#P#m#B#q#Q#k.o#s.2.z`6#7aK#TaK.b#8aD#J.qavaEaE.E.Eayar.X`F.Q.N`n`e`e`e",
".L.L.L`jaM.F`e.NaJ`B.1`7alaCaA.Ca8#N#O#G.KaF.3.3aP#A#x#x#m`T#Q#k.laH.r.g.b`YaK.5a..c.faHavaEax`C`C`S.Rar`q`F.Q.N`e`e.8`e",
".L#S#S`j.F`e`I.U.Q`h.XapaCaw`aa8#`#.#M`N#g`1.w.wa3a3#g#A#H#ma7.daY.q.fa#a..5aK`5`6a`aN`Javax.H.H.H`S.Rar`q`F.Q.N`e`e`e`e",
"#S#S`jaM.8`e`faJ`Bam`7aCaw.C.i#`.O.K#E#v#h.aahah#eaXa1`1#A#l#q.d.o.qaqaB`2`5.5.ba#.r#Y.JaE#k`i.H.V`S.Rar`q`F`y.N`eaL`e`e",
"#S`j`jaO`e`I.U`p.T.X`dawaA`a#N#p.M#Ead#hahag#b#bag#n#ea1aP#H#W.d.o#saq.c#6#7`5`2.caq#Yavax.H`i`i.V.V.R.p.X.T.Zaz`eaL.8`e",
"`j`j.I.F`e.N`y#4amapaC`W`a`u.`.M#Eadaj#c#i.k#dai.ka2#naX#g#x#W#Q.o#saqaB#6.b#7`6...t`Javax`i`i`i.V`S.R.p`Q#4.U.x.8`K.F.8",
"`j`jaO`e`I.U.0`F`7al`o`W.i`g#G.m#j`##c#b#waf.7af#d.kagaj#g#x#W.dax`J.f.c#6.b.b#8a`#Jatavax.H`A.V.V`S`E.p`t.0.N`e`K.F.F.F",
"`jaM.F`e`faJ#4`mapaC`W`a#L.`#FaSaZ#5#b#w#2.7.7.7afaiag.a#g#H#q`iaE`J.ra#`2#7.b#8.z#J`J`k`C.H.H`S`S.R.p`qaB`y`f`e.FaO`V.F",
"`j`V.F`e`x`p.T.#al`o`W.i#`a4#FaIacab.Baa`b.7.7.7.7aiag.aaP#l`4`iaY`J.z#8a.`5.b#8.z.t`J`k`C`C`S`C.Ray.p.X`B.Z`I`eaOaO`V`V",
"aM.F`e`I.Z.0`t`7`daw.6`u#O#G#E`M#5#3#w.j.7.7.7.7#d.k#c.w#A#m#y.H.l#Y.c`2#7.5#7`6..aq#I.J.E.E.R.R`Ear`q`F`y.N`e.8`V`j.IaO",
"`V.8`e`f`y`h`Q`7.e`W`a#L#p.MaSaZ`Oag#w#d`b.7.7.j#wagaj`1`N#.#y`Cataq.g`2.5`Y.5`2`h.r#J`J`kayay.p.p.P`t.0`x`I`e.FaM`j`jaM",
"`V`e.x`x`p.T.S`d`o`W.i`ga4.MaS#h#5ag#w#w#daf#d#wagah.w.3#P`4.VaE`J.r`6#7an.van#7`6..as.P#I#I#I.P.X`F`p.U`I`e.FaM`j`j`jaM",
".F`eaz.U.0.1`7`d`o`a.i`gaW.MaS`M.uab#bae.B#w#iag#ea1a6#x#.#y.H`k#Ia`a..5.y`0`n`Ya..gaB.z`Q.X`Qa`#4`6`x`v.8.F.I`j`j`j`jaM",
".8`e`f`c`B.1`7`d`o`W`a#L.`#G.maI.Yacahabab.n#caj.wa6`N`D`4`iaE.J.fa#`5.v`naLaL`nan`5`2#8#4a#.g.Q.Z.N.y`e.FaO`j`j`j`j`jaM",
"`e.x`faJ`Bam`7`d`P`W.6#L#K`l#F.m#f#h.a`#acaj.aad#EaF#M`T#z.H`k#I.z`6an`0`KaUaU`K`n.y`Y`5.Za.#7.N`f`v`naLaO`j`j`j`j`jaMaM",
"`e.xa5`y#4`t`7`d.e`W`a.i`g.`#G#F.maS#j#j#j#jaS.3.K#M`T#z.V.Earaq.c#7`n`K`R.I.I`R`KaL`n`van`Y`Yan`I.y`naL.FaO.I`j`j`jaM`V",
"`e.xa5aJ`B`t.S`d.e`o`a`a`u`g.``l.M#F.m.m.m.m.K.M`D#O#z`A`Say#IaD`6anaLaU.IaTaT.I.IaU`n.yan`Y.Na5.N`f.y`n`e.8aOaM`j`j`V.F",
"`e.x.N`c.0`F.#`7.e`o`W`a`a`u#L#K.`aW.O.O.O.O#O#O.D#z`A`Sayar`q`h.Z.y`K`RaT`8`8aT.IaU`n`v`x.Z`y.Q`y`y.U.N.x`e.F`VaMaM.F`e",
"`e`e`f.U`p.T`m`7`d.e`o`W`a`aa8`u#L#N#`#`#`#N.Da8`A.V`S.Rar`L.z#8`x`n`K.IaT.L`8.IaOaL`v#7`p#4`h.T`h#4`paJ.N.x`e.F`V`V.8`e",
".8`e`I`x`y`B`Fam.S`d.e`o`o`W.C`a`a`a.C.C.C.C.C.C.V`S.R`E.p.Pa``6.N`n`K.IaTaT.IaU`nana.`B`t`Q`q`q.Xam.T`p.Uaz`e.8.F.F`e.x",
".F`e.x`f`c.Q#4`Fam.S`7`d.e.eawaAaAaAaA.C.C.C.V.V`S`S.R`E.p.Pa`#8.U`n`KaO.IaO`K`nan.Z`ham`L.p.papap`7`t`BaJ`f`e.8.F.F`e.x",
".F.8`e.x`f.U.Q.0.T`t.S`7`d`d.eaCawawawaAaAaA.V`S`S`S.R`E.p`Lama#a.an`n`K`K`K`eana.`ham.p`EaCaCaCalap`Q.T`y`x`e`e.F.F`e`I",
"aM.F.8`e`I`f.U`y.0`h.1.X`7ap`d.e.eawawaAaAaAaA.V.V.V`S.R`E.p`q..#6.N`n`naL`n`v.U`Bam.Pal.RawawawaCal.S`F.Qa5`e`e.8.8`eaz",
"`jaM`V.8`e`I`f`x`y`p`h.1.X`7`d.eaCawaAaA`a`a`a.C.C.C.C.V.R`E`Lam`B.Zaz.y`n.y.N`pa`.PapaCawaAaAaw`o`d`7.1`p`x`e`e.8.8`eaz",
"`j`jaM.F`e`e`Ia5`c.Q#4.1.X`7`d.eawaA`a`a.i.D#N.D.D.Da8.C.V.R.p`q.T`y.Nan`van.Z#4`Q.palawaAaAaAaAawaC`7`t`p.U`e`e.8.8`eaz",
"#S`j`jaO.8`e`Ia5aJ.0.Tam`7`daC`o`W`a.i#L#`#O#p#p#p#O#`a8.C`S`E`L.1`p.U.Nan.N`y.T`q`EaCaA.C`a`a`W`o.e`7.1.Q`x`e`e.8`e`e`I",
"#S`j`jaO.8`eaz`x.Q`h`m`7`daC`W.6aR#L#KaW#G.M#F.M.M#Ga4#`a8aA.R.pam`B.Z`x.N`x`p.1.PalaCaA.C`a`W`W`o`d.S`F`ya5`e`e`e`e`e`I",
"#S`jaM`V`e.xa5`y#4`m.S`d`o`W.6`u#K.`#G#taS#vaI#v#E.m#G#p.D.C`S`E.X#4`y.Z`x.Z`p.1.Pal.e`W`a`a`W`W`o`d.#`haJ`f`e`e`e`e`e.x",
"`j`j`V`e.xa5`y`B.1.S`Z`o`W.6aV#K`l.M`raIaZ#1`##1aZ#j.m#G#``a.V`E.X`h`y.Z`x.Z`p.1.Pal.eaA`a`a`W`o.e`7`t`B`caz`e`e.8.8`e.x",
"`jaM.F`e`faJ`B.1.S`Z`P`W.6`u#K`l.m`r.Yac`Oabab`O.u#1`r.M.`a8aAaC`q`F.Q.Z`x.U`p`F`qal.e`o`W`W`o.e`d.S.T`p`x.x`e`e.8.8`e`e",
"aM.F`e`I.U`p.T.#`Z.e.h`.`u`g`l#t#Z#1#5.nae.B.B`s.n#5`M.m.O.D.CaC.P`F.Q.Z`x.U.Q.T.Xap`d.e`o`o.e`d`7`m#4aJ`f`e`e.8.8.8`e`e",
"`V`e`ea5`y#4`m`7#u`o`.aR`g###taI`#`O`saQaa.j.j#w.B.n#1aS.O#L.CaC.P`F.Q.U.Na5`y`Bam`7`d.e.e.e`Z`7.#.T.Q`x.x`e.F.F.F.8.8`e",
".8`e`I.U`p`F.S`d`o.h`.aV###D#f.Y`O#3aQaa`b`b`b.j#w`sac#v#G#L`aaC`q.T`y`x`f.N.Z.0`F.X`7`d`d`d`7.#`F.0.Uaz`e`e.F.F.F.F.8.8",
"`e.x`faJ`B`t.S#u`P`.aR`g`l#t#Zac#3.Baa`b`b`b`b#2#w`sac`r.O#L`a.e.X`h.Z.Nazaz`x.Q`h`t.X`7`7.Sam.1.0aJ`f.x`e.F`V`V`V`V`V`V",
"`e`Ia5`y`h`m`Z#u`P`.`3#K`l#t.Y#5`saQ#2`b`b`b`b#2aQ#3aZ`raW`u`Wal.#`B.U`f`I`I.NaJ`B`Fam.X`Q`m.T`B`ya5.x`e.F`V`V`V`V`V`V`V",
"`e`I`x.Q`h`m`Z#u.h`.`3#V#D`r#1`O`saQ#2`b`b`b#2aaaeab`M#t#KaR`oap`t.Q.N`I`e.x`f.U`p#4.T.1`F`h`paJa5.x`e.F`V`V`V`VaMaMaMaM",
"`eaz.U.Q.T.#`Z#u.h`.`3###D`r.Y`O#3aQaa.j`b#2aaaQ.nac`r#G#L.6aCap.TaJaz`e`e`e`I`x`y`p`B#4`B.Q`ca5`I`e.F`VaMaMaMaMaM`j`j`j",
"`eaz.U`p.T.#`Z#u.h`.`3#V`l#t`M.u.n`saQ`Gaa`Gae.nac#Z.M#K.i`Wal`Q`p.N.x`eaL`e.x`f.UaJ`y`yaJ`xaz.x`e.FaM`j`j`j`j`j`j`j`j`j",
"`e`I`x`y`h.#`Z#u.h`.`3`z##`X#f#1#5ab#3`sae#3`Oac#Z#taW`3.h.e`7.T.Z`I`e.F.8.8`e`I.N`x.U.Ua5az`e`e.FaM`j`j`j`j`j`j`j`jaGaG",
"`e.xa5`y#4`m.S`Z`P.haRaV#V`l#t#f.Y`#.u#5.uac`M`r.MaWaV`.`o`d`t`paz`e.8.F.F.F`e`e`Iazazaz.x`e.8`V`j`j`j#S#S#S#S#SaG`Uau`H",
"`e.x`f`c`B`F.#`Z#u.h`.`3`z###D#t`r#f`M`M#ZaI#t#D.`#L`.`Wal.S`h`c.x.8.FaO.F.F.8`e`e`e`e`e`e.FaO`j`j`j#S#S#S#S`U`Uau`Hao.G",
".8`e`I.U.Q`h`m.S#u`P`.`.aR`z##`l`X`X#t`X`X#D.``g`3.6`o`d.X.T.Z`I`e.FaM.IaM`V.F.8`e.8.8.F`VaM`jaG#S#S#S#S`U#X.G.G.G.G#C#C",
".F`e`e`faJ.0`F.#`Z`P.h`.`.`3`z#V########.`#VaV.A`.`o.e.S.T.Q`f`e.FaM`j`jaMaM`V`V.F.F.F`VaM`jaT.L#S`U#Xau`Hao#C.G.G#C#C#o",
"`V.8`eaz.U.Q`h`m.S`Z`P.h.h`..A`3`3`3`3`3aR`.`..h.e`d.#.T`ya5`e.F.I`jaT`j`jaM`jaMaMaMaM`j`j#S.L#rau`Hao.G#C#C#C#C.G#o````",
"aM`V`e.x`faJ.0.T`m`Z#u`P`P.h`.`.`.`.`.`..h`W`o.e`7.S`h.Q`x.x.8aO`j`j.L`j`j`j`j`j`j`j`j#S`Uau.sao#C.G#C.G#C#C.G``````````",
"`j`V`V`e`I`x`y.0`F.#`Z`Z#u#u`P`P`P`P`P`P#u#u`Z.#`t#4`ya5.x`eaM`j`j#S#S#S`j`j`j#SaG#S#Sau`H.G#C#C#C#C#C.Gak``````````````",
"`jaM`V`e.x`f.U`y`B`F.#.#`Z`Z`Z#u#u#u`Z`Z.S.#.1`h`paJ`f`e.8`V`j`j#S#S.L.L.L#S#S`Uau`Haoao#C#C#C#C.G.G````````````````````"
};
