/* XPM */
static char *initScene[] = {
/* width height ncolors chars_per_pixel */
"32 32 29 2",
/* colors */
"AA c #FFFFFFFFFFFF",
"BA c #FFFFFFFFBDBD",
"CA c #FFFFFFFF2121",
"DA c #FFFFFFFF0000",
"EA c #EFEFEFEFEFEF",
"FA c #DEDEDEDEDEDE",
"GA c #CECECECECECE",
"HA c #BDBDBDBDBDBD",
"IA c #ADADADADADAD",
"JA c #9C9C9C9CADAD",
"KA c #9C9C9C9C9C9C",
"LA c #8C8C8C8C8C8C",
"MA c #848484844A4A",
"NA c #7B7B7B7B7B7B",
"OA c #7B7B7B7B0000",
"PA c #737373732929",
"AB c #6B6B6B6B6B6B",
"BB c #6B6B6B6B0000",
"CB c #5A5A5A5A7B7B",
"DB c #5A5A5A5A5A5A",
"EB c #4A4A4A4A4A4A",
"FB c #393939394A4A",
"GB c #393939393939",
"HB c #292929293131",
"IB c #292929292929",
"JB c #212121210000",
"KB c #181818181818",
"LB c #000000001818",
"MB c #000000000000",
/* pixels */
"MBMBMBGBMBMBMBMBMBMBMBMBMBMBMBMBMBMBMBMBMBMBMBMBMBMBMBMBMBMBMBMB",
"MBABMBFBLBDBMBMBMBMBMBMBMBMBMBMBMBMBMBMBMBMBMBMBMBMBMBMBMBMBMBMB",
"MBMBBAOACACBMBMBMBMBMBMBMBMBMBMBMBMBMBMBMBMBMBMBMBMBMBMBMBMBMBMB",
"GBFBOAJBBBPAIBIBMBMBMBMBMBMBMBMBMBMBMBMBMBMBMBMBMBMBMBMBMBMBMBMB",
"MBLBCABBDAMAMBMBMBMBMBMBMBMBMBMBMBMBMBMBMBMBMBMBMBMBMBMBMBMBMBMB",
"MBDBCBPAMAJAMBMBMBMBMBMBMBMBMBMBMBMBMBMBMBMBMBMBMBMBMBMBMBMBMBMB",
"MBMBMBHBMBMBMBMBMBMBMBMBMBMBMBMBMBMBMBMBMBMBMBMBMBMBMBMBMBMBMBMB",
"MBMBMBIBMBMBMBMBMBMBMBMBMBKBMBKBMBKBMBKBMBMBMBMBMBMBMBMBMBMBMBMB",
"MBMBMBMBMBMBMBMBMBMBMBKBMBKBKBKBKBKBKBMBKBMBMBMBMBMBMBMBMBMBMBMB",
"MBMBMBMBMBMBMBMBMBMBKBMBKBKBKBKBIBKBKBKBKBMBKBMBMBMBMBMBMBMBMBMB",
"MBMBMBMBMBMBMBMBMBKBMBIBKBIBGBGBGBGBIBIBKBKBMBKBMBMBMBMBMBMBMBMB",
"MBMBMBMBMBMBMBMBKBMBIBKBGBEBEBDBDBDBEBGBIBIBKBMBMBMBMBMBMBMBMBMB",
"MBMBMBMBMBMBMBMBMBKBKBGBEBDBNANALANAABDBGBIBKBKBMBMBMBMBMBMBMBMB",
"MBMBMBMBMBMBMBMBKBKBIBEBDBNAKAHAIAIAKAABEBGBIBKBMBKBMBMBMBMBMBMB",
"MBMBMBMBMBMBKBMBKBIBGBEBNAKAHAFAFAGAIALAABGBIBKBKBMBMBMBMBMBMBMB",
"MBMBMBMBMBMBMBMBKBKBGBDBNAIAFAEAAAEAHAKAABEBIBKBKBMBMBMBMBMBMBMB",
"MBMBMBMBMBMBMBKBKBIBGBDBLAHAFAAAAAEAGAKAABEBIBKBMBKBMBMBMBMBMBMB",
"MBMBMBMBMBMBMBKBMBKBGBDBNAKAGAEAEAFAHALAABEBIBKBKBMBMBMBMBMBMBMB",
"MBMBMBMBMBMBMBMBKBKBIBEBABKAIAHAGAHAKANADBGBIBKBMBKBMBMBMBMBMBMB",
"MBMBMBMBMBMBMBKBMBKBIBGBDBABLAKAKAKANAABEBIBIBMBKBMBMBMBMBMBMBMB",
"MBMBMBMBMBMBMBMBKBMBIBIBGBEBDBABABABDBGBGBIBMBKBMBMBMBMBMBMBMBMB",
"MBMBMBMBMBMBMBMBMBKBMBKBIBGBEBEBEBGBGBGBIBMBKBKBMBMBMBMBMBMBMBMB",
"MBMBMBMBMBMBMBMBMBMBKBKBKBKBIBIBIBGBKBKBKBKBMBMBMBMBMBMBMBMBMBMB",
"MBMBMBMBMBMBMBMBMBKBMBMBMBKBKBKBKBKBKBMBKBMBMBMBMBMBMBMBMBMBMBMB",
"MBMBMBMBMBMBMBMBMBMBMBKBMBMBKBMBKBMBKBKBMBMBKBMBMBMBMBMBMBMBMBMB",
"MBMBMBMBMBMBMBMBMBMBMBMBMBKBMBMBMBKBMBMBMBMBMBMBMBMBMBMBMBMBMBMB",
"MBMBMBMBMBMBMBMBMBMBMBMBMBMBMBKBMBMBMBMBMBMBMBMBMBMBMBMBMBMBMBMB",
"MBMBMBMBMBMBMBMBMBMBMBMBMBMBMBMBMBMBMBMBMBMBMBMBMBMBMBMBMBMBMBMB",
"MBMBMBMBMBMBMBMBMBMBMBMBMBMBMBMBMBMBMBMBMBMBMBMBMBMBMBMBMBMBMBMB",
"MBMBMBMBMBMBMBMBMBMBMBMBMBMBMBMBMBMBMBMBMBMBMBMBMBMBMBMBMBMBMBMB",
"MBMBMBMBMBMBMBMBMBMBMBMBMBMBMBMBMBMBMBMBMBMBMBMBMBMBMBMBMBMBMBMB",
"MBMBMBMBMBMBMBMBMBMBMBMBMBMBMBMBMBMBMBMBMBMBMBMBMBMBMBMBMBMBMBMB"};
