/* XPM */
static char *dataTextureButton[] = {
/* width height ncolors chars_per_pixel */
"32 32 178 2",
/* colors */
"AA c #EFEFADAD0000",
"BA c #E7E7E7E70808",
"CA c #E7E79C9C0000",
"DA c #E7E74A4A0000",
"EA c #E7E739390000",
"FA c #DEDEDEDE0000",
"GA c #DEDE8C8C0000",
"HA c #DEDE73730000",
"IA c #DEDE21210000",
"JA c #DEDE10100000",
"KA c #D6D6BDBD0000",
"LA c #D6D639390000",
"MA c #D6D600000000",
"NA c #CECED6D60000",
"OA c #CECECECE0000",
"PA c #CECEB5B50000",
"AB c #CECE9C9C0000",
"BB c #CECE73730000",
"CB c #CECE63630000",
"DB c #CECE4A4A0000",
"EB c #CECE29290000",
"FB c #C6C6ADAD0000",
"GB c #C6C618180000",
"HB c #BDBD39390000",
"IB c #BDBD08080000",
"JB c #B5B5EFEF0000",
"KB c #B5B5C6C60000",
"LB c #ADADD6D60808",
"MB c #9C9CD6D60000",
"NB c #9C9CCECE0000",
"OB c #8C8CD6D60000",
"PB c #8484E7E70000",
"AC c #8484C6C60000",
"BC c #7373EFEF0000",
"CC c #7373C6C60000",
"DC c #6363D6D60000",
"EC c #6363C6C60000",
"FC c #5A5ABDBD0000",
"GC c #525200009C9C",
"HC c #525200008C8C",
"IC c #4A4A0000BDBD",
"JC c #4A4A0000ADAD",
"KC c #4A4A00008484",
"LC c #4242EFEF0000",
"MC c #4242CECE0000",
"NC c #4242BDBD0000",
"OC c #424210106363",
"PC c #42420000D6D6",
"AD c #42420000C6C6",
"BD c #424200009C9C",
"CD c #393921214242",
"DD c #393918185A5A",
"ED c #393910104242",
"FD c #39390000B5B5",
"GD c #393900009494",
"HD c #393900008484",
"ID c #393900007B7B",
"JD c #393900006B6B",
"KD c #393900005A5A",
"LD c #393900004242",
"MD c #3131C6C60000",
"ND c #313129293131",
"OD c #313129292929",
"PD c #31310000D6D6",
"AE c #31310000C6C6",
"BE c #313100003939",
"CE c #2929B5B50000",
"DE c #292929291818",
"EE c #292918183131",
"FE c #292918182929",
"GE c #292900009494",
"HE c #292900008484",
"IE c #292900003131",
"JE c #21210000F7F7",
"KE c #21210000D6D6",
"LE c #21210000C6C6",
"ME c #21210000BDBD",
"NE c #21210000ADAD",
"OE c #212100002929",
"PE c #1818C6C60000",
"AF c #1818BDBD0000",
"BF c #181829291818",
"CF c #181821212121",
"DF c #181818181818",
"EF c #1010DEDE0000",
"FF c #10100000FFFF",
"GF c #10100000E7E7",
"HF c #10100000D6D6",
"IF c #10100000C6C6",
"JF c #10100000BDBD",
"KF c #10100000A5A5",
"LF c #0808DEDEF7F7",
"MF c #0808C6C60000",
"NF c #08080000ADAD",
"OF c #0000FFFFBDBD",
"PF c #0000FFFF8C8C",
"AG c #0000F7F7CECE",
"BG c #0000EFEFD6D6",
"CG c #0000EFEFBDBD",
"DG c #0000EFEF9C9C",
"EG c #0000EFEF7373",
"FG c #0000EFEF4242",
"GG c #0000E7E75A5A",
"HG c #0000E7E71818",
"IG c #0000DEDEE7E7",
"JG c #0000DEDEC6C6",
"KG c #0000DEDEADAD",
"LG c #0000DEDE9C9C",
"MG c #0000DEDE8C8C",
"NG c #0000DEDE6B6B",
"OG c #0000DEDE4A4A",
"PG c #0000DEDE0000",
"AH c #0000D6D63939",
"BH c #0000CECEDEDE",
"CH c #0000CECE9C9C",
"DH c #0000CECE7373",
"EH c #0000CECE6363",
"FH c #0000CECE5252",
"GH c #0000CECE4A4A",
"HH c #0000CECE2121",
"IH c #0000CECE1010",
"JH c #0000C6C6ADAD",
"KH c #0000C6C68C8C",
"LH c #0000C6C63939",
"MH c #0000BDBDDEDE",
"NH c #0000BDBDC6C6",
"OH c #0000BDBDB5B5",
"PH c #0000BDBD9C9C",
"AI c #0000BDBD7373",
"BI c #0000BDBD6B6B",
"CI c #0000BDBD3939",
"DI c #0000BDBD2121",
"EI c #0000BDBD1010",
"FI c #0000BDBD0808",
"GI c #0000ADADC6C6",
"HI c #0000ADADB5B5",
"II c #0000A5A5FFFF",
"JI c #0000A5A5D6D6",
"KI c #00009C9CFFFF",
"LI c #00009C9CE7E7",
"MI c #00009C9CBDBD",
"NI c #00009494DEDE",
"OI c #00008C8CF7F7",
"PI c #00008C8CBDBD",
"AJ c #00008484CECE",
"BJ c #00007B7BE7E7",
"CJ c #00007B7BD6D6",
"DJ c #00007B7BBDBD",
"EJ c #00007373FFFF",
"FJ c #00007373CECE",
"GJ c #00006B6BE7E7",
"HJ c #00006B6BDEDE",
"IJ c #00006B6BC6C6",
"JJ c #00006363B5B5",
"KJ c #00005A5AF7F7",
"LJ c #00005A5ACECE",
"MJ c #00005A5AB5B5",
"NJ c #00004A4AFFFF",
"OJ c #00004A4AADAD",
"PJ c #00004242CECE",
"AK c #00003939E7E7",
"BK c #00003939CECE",
"CK c #00003939B5B5",
"DK c #00003131DEDE",
"EK c #00002929F7F7",
"FK c #00002929EFEF",
"GK c #00002929CECE",
"HK c #00002121DEDE",
"IK c #00002121BDBD",
"JK c #00001818B5B5",
"KK c #00001010D6D6",
"LK c #00001010C6C6",
"MK c #00000808D6D6",
"NK c #00000808C6C6",
"OK c #00000000FFFF",
"PK c #00000000EFEF",
"AL c #00000000BDBD",
"BL c #000000000000",
/* pixels */
"ODCFODCFODCFODBFODCFODDEODODODODNDNDCDCDCDOCDDOCOCKDOCJDKCIDJDJD",
"FEDEODFEDEEDEEEDDDOCIDGDGDFDJCJCGCHCGCGCGCICICJCKCBDBDGDGDGEHDID",
"BLOEIEIELDKDOCKCBDJCIFKEPKHFGFPDICGCGCICPCPDGFKEAEJCGDMENEMENEHD",
"OEOEBELDKDOCHDGDMENKKKDKDKAKFKOKPDADADADJEOKFKFKPKIFJFJCMEMEJFJF",
"OEBEBELDOCKCJCNKNKDKCJNIMHIILIGJOKPDPCPDOKKJBJHJPJFKIFJFJFALJKAL",
"BEBEBEKDKCGDALLKHJJIJGKGDGDGAGLFEJOKJEFFNJOILFIGNIDKNKIFIFJKIKMJ",
"BEBELDKDKCJFLKAJJGCHAHPGEFEFHGPFLFNJFFOKGJIGCGKGBHIJHFIFNKIKJJMJ",
"KDLDKDHCNENKLJJGAIMFLCMBNAJBBCEFOFEJFKFKKIAGGGFHCGNILKIFALMJDJDJ",
"OCOCOCIDJFCKJIDHMFDCOACAGACABALCPFIIFKNJIGEGEFOGCHNINKIFALPJDJDJ",
"HDOCIDJCALFJJHDIMCOAHAIAJAEAAABCEGIIAKGJBGFGPGAHKGHJIFMEALMJMJOJ",
"HDHDGDALCKGIEHMDNBGAEBMAMAEAAALCPFLIEKBJBGOGAHNGJGGKJFJCALALIKJK",
"GDHDGEJFLJOHGHMDKBCBEBMAMALAFAEFCGKJGFGJBHLGMGCGCJIFNEGEMEJFALKF",
"HDGDJFNFGIPHEIECOABBLAEBDAAAPBFGBHFKFKKKLIJIMHHJIFMEKCGDKFJFNFJF",
"HEGDJFCKFJCHHHMDNBPAABGAFALBEFDGOIMKFDKEHFDKHKNKIFGDGDGDJFNFCKIK",
"HDGEALIKPIJHFHFIMCACMBNBECEFGGMHHKAEKCJCIFHKPJBKLKIFGENEALMJMJMJ",
"GDHDJFJKLJGIPHGHDIIHPEIHHHGHCGLIGKAEGCLEHKNIJGNHFJLKMEKFIKMJDJJJ",
"IDHDNEJFIKMJGIOHCHEHGHLHOGFHCHMHDKIFHFBKNHMGBILGAJIKJFJFMJJJDJOJ",
"JDIDIDJCNFIKLJNIJHFHHHPEPEPEHHKGFJKKNKNIKGLHHHBIOHIKJFNFIKMJJJNF",
"KDJDJDHEALIKPIJHLHAFECMBLBOBMDEGNIBKDKGIDHPEIHDHAJIKJFNFIKOJNFNF",
"OCKDKCNEJKFJJHLHCENBFBGAHAKAECHHMHPJBKGIDHHHCICHFJJKKFALNFNFNFID",
"JDIDGEALMJOHGHCENBABDBGBEBCBMBIHNHPJGKAJJHFHKHHICKJFJFKFJKKFHDKD",
"IDHDJFIKAJKHDIMCPADBIBIBIBCBKBHHGIBKJFLJJGJHHIIJJFKFNEKFNEHDJDBE",
"HDGEALOJMIAIAFCCABHBIBIBGBBBDCGHNIALLKMJIJGIPJNFMEGDGEGDHEOCLDOE",
"HDGDALJKGIAIEIFCFBCBHBHBCBKBAFCHPJJFJFNKMJCKJFJFHDHEGDHDJDIEODDE",
"HDGEKFIKDJJHDICECCFBABFBACMDDHNIALNEMEJFNKJFGEKCIDJDDDNDBFCFBLBL",
"GEHDNENFMJMIBIDICEFCFCNCEIDHGIALFDHDGDNENEGDKCKDEEODBFDFBLBLBLBL",
"HDHDHEJFIKDJHIBICIDICIFHJHAJJKKFHDKCHDHDIDEDODBFODDFBLBLBLBLBLBL",
"IDJDIDGENFCKDJHIOHJHHIGIIJNFJFBDOCJDKDEEODODBFBLBLBLBLBLBLBLBLBL",
"IDKDJDIDNEALOJCKMJLJMJALALNEKCKDLDNDODCFDFBLBLBLBLBLBLBLBLBLBLBL",
"KDLDKDJDHDNEKFALALNFJFJFNEOCNDCFODCFBLBLBLBLBLBLBLBLBLBLBLBLBLBL",
"BELDLDKDIDIDGEJCGENEHDDDDECFODBFBLBLBLBLBLBLBLBLBLBLBLBLBLBLBLBL",
"BEIELDKDLDJDIDJDDDEDBFODDFDFBLBLBLBLBLBLBLBLBLBLBLBLBLBLBLBLBLBL"};
