/* XPM */
static char *resetAnimationButton24x24[] = {
/* width height ncolors chars_per_pixel */
"24 24 57 2",
/* colors */
"AA c #080808080909",
"BA c #0A0A0A0A0B0B",
"CA c #141414141414",
"DA c #1A1A1A1A1C1C",
"EA c #272727272828",
"FA c #2D2D2D2D2E2E",
"GA c #2E2E2E2E2F2F",
"HA c #393939393A3A",
"IA c #565657575959",
"JA c #575758585A5A",
"KA c #5C5C5C5C5E5E",
"LA c #626262626060",
"MA c #6A6A69696868",
"NA c #6A6A6A6A6969",
"OA c #828281817777",
"PA c #848482827979",
"AB c #969694948989",
"BB c #969695958A8A",
"CB c #9E9E9C9C9090",
"DB c #9B9B9C9C9F9F",
"EB c #9C9C9C9CA0A0",
"FB c #ADADADADADAD",
"GB c #B4B4B2B2AAAA",
"HB c #B3B3B4B4B2B2",
"IB c #BBBBB8B8B0B0",
"JB c #BDBDBBBBB2B2",
"KB c #BEBEBEBEB5B5",
"LB c #C2C2C1C1B5B5",
"MB c #C7C7C5C5BBBB",
"NB c #D1D1CFCFC6C6",
"OB c #D5D5D2D2C3C3",
"PB c #D7D7D4D4C4C4",
"AC c #DADAD6D6C5C5",
"BC c #D9D9D6D6C7C7",
"CC c #DCDCD9D9C9C9",
"DC c #DDDDDADAC9C9",
"EC c #DEDEDBDBC9C9",
"FC c #DBDBDBDBD5D5",
"GC c #E0E0DDDDCDCD",
"HC c #E2E2DFDFCFCF",
"IC c #E3E3E0E0CFCF",
"JC c #E6E6E3E3D3D3",
"KC c #E9E9E6E6D4D4",
"LC c #E9E9E6E6D5D5",
"MC c #EAEAE7E7D6D6",
"NC c #ECECE9E9D8D8",
"OC c #EEEEEAEAD8D8",
"PC c #EEEEEBEBD9D9",
"AD c #F0F0EDEDDADA",
"BD c #F1F1EDEDDCDC",
"CD c #F4F4F0F0DFDF",
"DD c #F8F8F5F5E2E2",
"ED c #FCFCF8F8E5E5",
"FD c #FFFFFEFEEDED",
"GD c #FDFDFCFCF2F2",
"HD c #FFFFFFFFFEFE",
"ID c #000000000000",
/* pixels */
"PCPCPCPCPCPCPCPCPCPCPCPCPCPCPCPCPCPCPCPCPCPCPCPC",
"PCPCPCPCMCPCPCPCMCPCMCPCPCPCMCPCPCPCPCPCPCNCPCNC",
"MCPCMCPCPCPCPCPCPCPCMCPCMCPCPCMCOCKCOCOCNCPCNCPC",
"MCMCLCLCMCMCJCLCJCMCMCMCMCMCMCMCKCOCKCICKCKCNCJC",
"MCMCLCMCMCMCLCBDHDHDPCLCMCMCMCMCCDCDOCOCLCOCLCOC",
"LCLCLCLCLCLCJCHDIAHAMBPCMCMCMCGDDBMACDOCJCLCJCLC",
"JCJCJCLCJCLCJCHDEAIDKBOCJCJCGDEBIDJADDLCJCJCJCJC",
"JCJCJCJCJCJCICHDGABAKBPCICGDFBIDIDKACDJCJCJCJCJC",
"JCJCJCJCJCJCICHDGABAKBOCFDFBIDIDIDKACDJCJCJCJCJC",
"ICICICICICICHCHDGABAKBGDDBIDIDIDIDKACDICICICJCIC",
"ICICJCHCICICHCHDGAIDFCHBIDIDIDIDIDKACDHCICJCICIC",
"ICICHCHCHCHCHCHDGACANAIDIDIDIDIDIDKABDJCICICICHC",
"HCHCDCHCDCHCDCHDGACALAIDIDIDIDIDIDKABDDCHCCCCCHC",
"HCDCDCHCHCHCDCHDGABANBCBIDIDIDIDIDKAPCHCHCHCHCHC",
"GCDCDCHCDCDCCCHDGABAIBEDPAIDIDIDIDKAOCHCCCHCHCEC",
"DCDCDCDCDCCCCCHDGABAKBICCDBBIDIDIDKAOCCCCCCCECCC",
"DCDCDCDCFCDCBCHDFAAAJBICECBDABIDIDKAOCCCCCCCDCDC",
"DCDCDCDCDCDCBCHDGAAAJBECCCCCCDOAIDKAOCCCCCCCDCDC",
"BCBCBCBCBCBCBCFDHADAGBECCCBCBCADPAMAJCBCBCBCBCBC",
"BCBCBCBCBCBCBCBCJBGBLBECBCBCBCBCICJCBCBCBCBCBCBC",
"BCBCBCBCBCBCBCBCECECCCCCACCCACCCBCCCBCBCBCBCBCBC",
"OBOBOBOBBCBCOBOBOBCCOBOBOBOBOBOBOBOBOBPBBCPBBCOB",
"OBOBBCOBOBOBBCOBOBOBOBBCOBOBBCOBOBOBPBPBPBOBOBOB",
"OBOBOBOBOBOBOBOBOBOBOBOBOBOBOBOBOBOBOBOBOBOBOBOB"};
