/* XPM */
static char *playButton[] = {
/* width height ncolors chars_per_pixel */
"32 32 19 1",
/* colors */
"A c #EFEFEFEFDEDE",
"B c #E7E7DEDECECE",
"C c #DEDEDEDECECE",
"D c #A5A5C6C6C6C6",
"E c #A5A5A5A5A5A5",
"F c #A5A5A5A58484",
"G c #8484A5A58484",
"H c #848484848484",
"I c #6363A5A58484",
"J c #636384848484",
"K c #636384844242",
"L c #4242A5A54242",
"M c #424284844242",
"N c #212184844242",
"O c #212184840000",
"P c #212163630000",
"Q c #000084840000",
"R c #000063630000",
"S c #000000000000",
/* pixels */
"AAAAAAAAAAAAAAAAAAAAAAAAAAAAAAAA",
"AAAAAAAAAAAAAAAAAAAAAAAAAAAAAAAA",
"AABABABABABABABABABABABABABABAAA",
"BAABAAABAAABAAABAAABAAABAAABAABA",
"ABAABAAABAAABAAABAAABAAABAAABAAB",
"BAABAABBAABBAABBAABBAABBAABBAABA",
"ABABABAABBAABBAABBAABBAABBAABBAA",
"ABABABABBAABBAABAABABAABBAABAABA",
"AACABABAABREABBABBABABBAABBABBAB",
"BBBBACABBBRRMCABBACACABABCABBACA",
"ACACBACACARRRRJCACBBACACBACACBAC",
"CABCABBCBBRRRRRPGBBACBBCACBCABCA",
"ACBACBACACRRQQQRRRECBACBBACBCACB",
"CBBCCACBCBRRQRQQRRRKACBCACBCACBB",
"ACBBBCBACBRRQQQQQQQRRHBBCBACCBAC",
"CCCACBCCBBRRQQRQQQQRRRRFBCCBBCCB",
"BBCCCCBCCCRRQQQQQRQQQQRRRDCCBBCC",
"CCBCCBCBCBRRRQQQQQQQQQRQLECBCCCB",
"BCCBCCBCCCRRQQQRQQQQQQOGCCCCBCBC",
"CCCCBCCCCBRRQQQQQQQQRIBCCCBCCCCC",
"CCCCCCCCCCRRRQQQQRQLDCCCCCCCCBCC",
"CCCCCCCCCCRRQQQRQNECCCCCCCCCCCCC",
"CCCCCCCCCCRRQQQOGCCCCCCCCCCCCCCC",
"CCCCCCCCCCRRQQKCCCCCCCCCCCCCCCCC",
"CCCCCCCCCCSQMDCCCCCCCCEBCCCCCCCC",
"CCCCCCBECCQFCCCCCCCBECBCCCCBECCC",
"CCEBCEBBCCCCCEBCEBCCBCCCEBCCBCCC",
"ECBCCBBCCCBECBCCBCCCBECCBBECCBEC",
"BCCCEBCCEBCBCCEBCCEBBBCCCBBCCCBC",
"CBECBCCCBCCBECBCCCBCCCCBECCBFCCC",
"CCBCFBCFBCCCBCCEBCCFBCFBBCCCBEBC",
"BECCBBEBCCBECBEBCBEBCCBCBFBECAEC"};
