/* XPM */
static char *Field lines_xpm[] = {
/* width height num_colors chars_per_pixel */
"    60    60      256            2",
/* colors */
"`` c #040505",
"`. c #048644",
"`# c #044224",
"`a c #044497",
"`b c #04c65c",
"`c c #0485a8",
"`d c #046498",
"`e c #04a4a9",
"`f c #042c70",
"`g c #04632f",
"`h c #0463cf",
"`i c #042422",
"`j c #04e26c",
"`k c #0442d0",
"`l c #04425f",
"`m c #0483d4",
"`n c #04a3d9",
"`o c #04341c",
"`p c #047598",
"`q c #045499",
"`r c #04c2ba",
"`s c #045461",
"`t c #046366",
"`u c #04a254",
"`v c #0494a6",
"`w c #0474ce",
"`x c #0439a0",
"`y c #04b5d5",
"`z c #04d4c8",
"`A c #047264",
"`B c #04837a",
"`C c #041314",
"`D c #04b5b1",
"`E c #0495d4",
"`F c #042549",
"`G c #043449",
"`H c #0454ba",
"`I c #045580",
"`J c #0463b9",
"`K c #043771",
"`L c #04e3c1",
"`M c #0474b6",
"`N c #04938f",
"`O c #0446b7",
"`P c #045638",
"`Q c #0463f1",
"`R c #0454d1",
"`S c #046381",
"`T c #041d36",
"`U c #0484bf",
"`V c #04447e",
"`W c #04a3ed",
"`X c #0493c1",
"`Y c #04a5c1",
"`Z c #04c5e3",
"`0 c #0474f1",
"`1 c #042430",
"`2 c #041d11",
"`3 c #04d6e8",
"`4 c #04848d",
"`5 c #043b48",
"`6 c #0452e8",
"`7 c #046d99",
"`8 c #047d98",
".` c #045c98",
".. c #045d62",
".# c #04b4f0",
".a c #0496ec",
".b c #04f5e9",
".c c #044b99",
".d c #044547",
".e c #043789",
".f c #043186",
".g c #0484f0",
".h c #047482",
".i c #04d28c",
".j c #047840",
".k c #046bd0",
".l c #044c61",
".m c #043db7",
".n c #04bbb7",
".o c #045cb7",
".p c #045d80",
".q c #04e5e7",
".r c #046c7e",
".s c #048dbe",
".t c #04cde8",
".u c #042c2e",
".v c #043e24",
".w c #049ba9",
".x c #046cba",
".y c #045ccf",
".z c #04acef",
".A c #048c92",
".B c #040b0b",
".C c #04acb2",
".D c #04e59f",
".E c #04add7",
".F c #046c6a",
".G c #047bd1",
".H c #042d44",
".I c #047cb5",
".J c #046cee",
".K c #049bc8",
".L c #04acc2",
".M c #047b85",
".N c #048bb1",
".O c #04bbdc",
".P c #04dcda",
".Q c #041525",
".R c #049ddb",
".S c #049c98",
".T c #044d83",
".U c #047cf1",
".V c #041c28",
".W c #043b5f",
".X c #044c50",
".Y c #049a49",
".Z c #0463a7",
".0 c #043275",
".1 c #046d59",
".2 c #0475a7",
".3 c #0454a7",
".4 c #04ccca",
".5 c #04546f",
".6 c #04b868",
".7 c #043ea5",
".8 c #04335f",
"#` c #044cb9",
"#. c #04a399",
"## c #04d8a4",
"#a c #045450",
"#b c #04d364",
"#c c #04edcc",
"#d c #048468",
"#e c #044c2c",
"#f c #04dae4",
"#g c #04fdfc",
"#h c #04eee4",
"#i c #04caac",
"#j c #04e2b0",
"#k c #042b17",
"#l c #044ccc",
"#m c #048ddc",
"#n c #045eec",
"#o c #04bcfc",
"#p c #049df8",
"#q c #048cf8",
"#r c #045c4e",
"#s c #043338",
"#t c #04b2c6",
"#u c #04e2dc",
"#v c #04c4fc",
"#w c #047858",
"#x c #042c5f",
"#y c #046a3c",
"#z c #04ea84",
"#A c #047a74",
"#B c #048a84",
"#C c #043e74",
"#D c #045e2c",
"#E c #043e8c",
"#F c #04ea94",
"#G c #048a64",
"#H c #044339",
"#I c #0443a9",
"#J c #04ca71",
"#K c #046440",
"#L c #0464e1",
"#M c #04e480",
"#N c #044574",
"#O c #04c3cb",
"#P c #0475e1",
"#Q c #04d2d8",
"#R c #04265c",
"#S c #041e4c",
"#T c #04d2f9",
"#U c #046ca8",
"#V c #047ca8",
"#W c #045caa",
"#X c #045c71",
"#Y c #044ca7",
"#Z c #046de0",
"#0 c #044c71",
"#1 c #04bcc6",
"#2 c #04e5fc",
"#3 c #04cbfb",
"#4 c #043b3a",
"#5 c #040e14",
"#6 c #047ee0",
"#7 c #04dbfc",
"#8 c #04eafc",
"a` c #04be64",
"a. c #04aa54",
"a# c #048a54",
"aa c #0483b4",
"ab c #04a3b4",
"ac c #042e7c",
"ad c #0446dc",
"ae c #0482e4",
"af c #04a2e4",
"ag c #04362c",
"ah c #046474",
"ai c #0493b4",
"aj c #0438ac",
"ak c #047674",
"al c #048384",
"am c #04141c",
"an c #04b2bc",
"ao c #0496e4",
"ap c #043254",
"aq c #0453c4",
"ar c #04548c",
"as c #0464c4",
"at c #04367c",
"au c #0476c4",
"av c #04959c",
"aw c #0442c4",
"ax c #0464fc",
"ay c #0456dc",
"az c #04658c",
"aA c #0483cc",
"aB c #04428c",
"aC c #04a5fc",
"aD c #0495cc",
"aE c #04a6cc",
"aF c #04c2ec",
"aG c #0472fc",
"aH c #04243c",
"aI c #041b1c",
"aJ c #04849c",
"aK c #043e54",
"aL c #04b2fc",
"aM c #0492fc",
"aN c #044554",
"aO c #043a94",
"aP c #043294",
"aQ c #0484fc",
"aR c #04758c",
"aS c #04d09c",
"aT c #043ec4",
"aU c #045dc4",
"aV c #045b8c",
"aW c #046b8c",
"aX c #048ccc",
"aY c #042b3c",
"aZ c #049bb4",
"a0 c #046cc4",
"a1 c #045cdc",
"a2 c #04acfc",
"a3 c #048b9c",
"a4 c #04aee4",
"a5 c #046c74",
"a6 c #042a54",
"a7 c #047cc4",
"a8 c #046cfc",
/* pixels */
"````````````````````````````````````````````````````````````````````````````````````````````````````````````````````````",
"````````````````````````````````````````````````````````````.B.B.B.B.B.B.B.B.B.B.B``````````````````````````````````````",
"````````````````````````````````````````````````````.B.B.B.B.B.B````````````````.B.B.B``````````````````````````````````",
"``````````````````````````````````````````````.B.B.B.B.B```````C#s.Xah.M`4.M.F#H``.B#5.B.B``.B.B````````````````````````",
"``````````````````````````````````````.B.B.B.B#5.B.B```C`5.r`v`Yab`e`v.A`4`4`N.C.n#4``#5.B.B.B``.B.B.B``````````````````",
"``.B``````.B.B.B.B.B.B.B.B.B.B.B.B.B#5#5#5.B````aI`sa3.L.C`va5.X#saI`C#5.B.B`C.u.F`z`5.B#5.B.B.B.B.B.B````````.B.B.B.B.B",
"````#b.Y#D`2``````.B.B#5#5#5#5#5#5.B.B`````i`t.C.4#Oav`s.u#5````````.B.B#5`C`C`C#5`t#u``#5.B.B.B.B.B.B.B.B.B.B.B.B.B.B.B",
"`g#e`g.Y`b`j#b`u#y.vaI.B````````.B`i.X`B`r#u.P.C`t`i````aI.da5.A`eananav.X```C`C`C`i`r#r.B#5.B.B.B.B#5#5#5#5#5#5.B.B.B.B",
"`g#b`b.j`o`#.ja.#J#M#F.D##aSaS##`L#c#c`z#...`i```C.d`4#1`3#Q#O.L.wavav.C.P.q`i#5`C`C.S`N``#5#5#5#5#5#5````````.B`C#5#5.B",
".B`#`.a`#M.6#K`2`C`o#e#K#w#d#G#d`A#a.u#5``.u.F.C#f#f#Oav..#saI#5.B.B.B`C#s`4#gaI`C`Cal`e```C`C#5#5.B#4#A.S#.`B.d``.B`C#5",
"``````#k#D.Y#J#z#J#G`P`i.B```````C#4.1#..P#h.P`Dak#4`C``.B#5#5#5`C`C`C`C#5aI.A#O```C#B`e```C`C#5`i`N`D.S`B`B.S.4#Q.X```C",
"``.B.B.B``.B#k`Pa#.6.i.D.D#j#j`L#c#c`L#i`N#a`i````#5#5#5#5#5#5#5#5#5#5#5`C#5`5.P.V`C`N`N.B`C`C.u`e`e#s.B.Bamam#s#A`Zab#5",
"``````.B.B.B.B``.B`C#k#H#r.1#w.1#r#H`i.B``.B#5#5#5#5.B.B.B.B.B.B.B.B.B#5`C`C.V.C`tam.w#A#5amaI.S`e#5`1ak`e#t#1.L.h.X`v.O",
"````````````.B.B.B.B.B.B````````.B.B#5#5#5#5.B.B.B.B.B.B.B.B.B.B.B.B.B.B#5`C`C.A.M.V`e..`C`C.h#1.V...C`v`4.h.r.h.w.O.r`p",
"````````````````.B.B.B.B.B.B.B.B.B.B.B.B.B.B.B.B.B.B.B.B.B.B.B.B.B.B#5.B#5`C`Cal`4.u.n`5`C#s.C..`t.Cav.M.X#s#4`tah#X.K`p",
"``````````````````````````.B.B``````.B.B.B.B``.B.B.B.B.B.B.B.B.B.B.B#5.B#5`C`C.M.A#4#O`iamak.L.X.C`ea5`C`Camam`C`1.l.laa",
"``````````````````````````````````````.B.B.B````.B.B.B.B.B.B.B.B.B.B#5.B#5`C`C.M`4.X#1`C.uabak`v.L.r.Bamamamamamamam.HaN",
"````````````````````````````````````````.B.B````.B.B.B.B.B.B.B.B.B.B#5#5#5`Cam.M.h#Xab#5`s#t.r.L.w#5amamamamamamamaIaI`1",
"````````````````````````````````````````.B.B````.B.B.B.B.B.B.B.B.B.B#5.B#5`Cam.M.h.ra3`C`8aZa3.O`5amamamamamamamam.V.V.V",
"````````````````````````````````````````.B.B``.B````.B.B.B.B.B.B.B.B#5#5#5`Cam.M.haR.M`1aZa3`YaZ#5aIamamamamam`5`i#5am.V",
"````````````````````````````````````````.B``.B.B````.B.B.B.B.B.B.B#5.B#5#5`CamaR.h`8ah`5.L`8`y.5amamamaIam.V.l.K`n.KaWam",
"``````````````````````````````````````.B.B.B.B``.B.B.B.B.B.B.B.B#5.B#5#5#5`CamaRaW`8#X.laE`8.O.V.V.V.V`C`5`c.N.5#0`S.s.#",
"````````````````````````````````````````.B.B``.B.B.B.B.B.B.B.B.B#5.B#5#5#5`CamaW`p#V#X#X.K.N`n#5.V.Vam`G.saW.VaYaN`5.Haz",
"````````````````````````````````````````.B.B``.B.B.B.B.B.B.B.B#5#5.B#5#5#5`Cam`S#V`8.paz`X.K.N`C.V.Q.V#V.2.V`paDaD`n`n.p",
"``````````````````````````````````````.B.B.B``.B.B.B.B.B.B.B.B#5#5.B#5#5#5`C`C.5.s`7`7az.s.R.2am.Vam`l`E`Gaa#V`5aY`5aW.z",
"````````````````````````````````````.B.B````.B.B.B.B.B.B.B.B#5#5.B#5#5#5#5am`C`l`n.paa.p`U.R.2.Q.V.Qazaa.p.s.VamamamaI.5",
"````````````````````````````````````.B``.B.B.B.B.B.B.B.B.B.B#5.B#5#5#5#5#5amamaYaX`7.R.5`U.R`Uam.V.V.I`7aX.l`1az.s.saW`C",
"````````````````````````````````.B``````.B.B.B.B.B.B.B.B.B#5#5.B#5#5#5#5#5`Cam.Q`7aX`EaV`UaX`W#5.V`1`UaVaf.V`1aa.p.p.K.E",
"````````````````````````````````.B.B.B.B.B.B.B.B.B.B.B.B.B.B#5#5#5#5#5#5#5#5amam`l`W.I.2`U`M#o`1.V`1`U`I.Ram.V.VamaI`GaE",
"``````````````````````````````.B.B#5#5#5#5`C`C`C#5#5#5#5#5#5#5#5#5#5#5#5#5#5am.Q.V.2`Wa7aV`MaC`d.Q`T`M`I`Wam.V.V.V.V.V.p",
"````````````````````````.B.B.B#5#5#5#5.B``````````.B#5#5`C`C`C#5#5#5#5#5#5amamamamap#m.a`I.xaua2.V.V.`aV#p.H.V.V.V.V.V`l",
"``````````````````````.B.B#5#5.B``.B#4a5.w.O.t.t.L`8aN`C``.Bamamamam#5#5#5amamam.Qam#N#q#6`V#W#q`wam.8.Z#U`U#5.V.V`1.V.l",
"``````````````````.B.B#5#5.B``.d.C#g#g#g#7.O`Yab.L.O#T#7.E`Sam``#5amamamamamamam.Q.Q.Q`V.g.x`q.o#param.Z#0ao`dam`1`1.V`7",
"````````````````.B.B#5.B.B`t#f#g#g.L...u`C.B.B.B#5amaY`saa.##3.R#0#5``#5.Q.Qam.Q.Q.Q.Q.Q`V.Uas`q`J#p.T`T#U.Tao`l.Q.V.paD",
"````````````.B.B#5.B``#r.P#g.qa5aI``#5`C`C`Camamamam`C#5`C`1.l#V.z#oaX#0.Q.B#5am.Q.Q.Q.V.Q`K`h`h`q.oaM`JaHar.`aA.2.I`U.5",
"``````````.B#5#5``ag`r#g#u...B.B`C`C`C`C`C`C#5`C`C`Camamamam`CamaY#0.I.aaC#q.Z.W.V#5am.Q.V.Q`F`H#Z.3.3#P#q#W.T`I.`aV`I#V",
"````````.B#5``#5#B.b.b.F``.B`C`C#5#5#5#5#5#5#5#5`Camamamam.Q.V.V.Qam.QaH#C.``w.UaQ.UaUaBa6.V.Q.V`KaUaU.3#W`w`ma7`M#V.I`U",
"``````.B#5``ag`r.b.S`C```C#5#5#5.B#5#5#5#5#5`Camamamamam#5amamamam.Q.Q.Q.Q.Q.Q`F.8aB.3`h#L.J.y`a#xaH`K.o`J#W.Z#U#U.I.I`p",
"````.B#5``.X`z.P.d``#5`C#5#5#5.B.B#5#5#5`C`Cam#5#5`1.l`S`7`7`7`daV`I.T`V#N`V`V`V#E#E#E`a#Y#Y#``H.y#L.o#Y.3#W`J.x#U#U`7az",
"````.B``.X`z.n`C.B#5#5#5.B.B.B.B#5#5#5`Cam`Cam.raF#7#T#o.zaf`W`W#p#p#paM#qaQaQ`0.J.J#L#La1`R`R`R`Raq`R.y`ha0.x.x#U`d`7aa",
"``.B.B#s.n.n``#5#5#5.B.B.B.B.B#5#5#5`Cam#5aN.t#2.E`p#V.K.##oaLa2aC#p#q.U#P.kasaU.y.y.y`R`R`R`R`R`R`R`R.yasas.x.x`M.I.2az",
"``.B.B`N.4#5#5#5.B.B.B.B#5#5#5#5#5`Cam#5.r#2#TaR`c#3#T.#`U`d#0.W`G.W`V#W.k#Z.J#L.yaq#`#`#I`x.e.eaOaO#E`a#Y#W#W.Z.Z`7.2#V",
".B``.X.4.X.B#5#5.B.B.B.B#5#5#5#5`Cam#5.r#2`Z#XaF#2.N`5.Vam.Q`l`M#p#p#q.U.k`h.yaq#I.e#x#S#x.f.7`O#`#`aqaUaU`J.x.x`M.2`p`p",
".B.Bal#1``#5.B.B.B.B.B#5.B#5#5#5`C`C.l#7#T`s#T#T`5am.V.VazaL#o.a.G`w#6.U.k`a#x`T.Q.Q`f.7#I.m`O#l#l#`#Y#Y.3.o.Z#U.2.2`7.p",
".B`iab.F``#5.B.B.B.B.B.B#5#5#5`C`C`1.O#2`s`Z#3.V.V.VaY`n#3aX#U#maCae.T`F.Q.Q.Q.Q#R.7.7.7`kaw`x.eaO#I#``H.o`J.Z#UaW`S.p#X",
"``.d#O.u.B.B.B.B.B.B#5.B#5#5`Cam`CaJ#8.M`v#2.V.V.V`G.##3`7`U#o#m.W.Q.Q.Q.Q.Q`T.e.7`xaw`kaPac`x#l#`#`#Y.3#W.`.``daz`S`Sah",
"```t#O``#5.B.B.B.B.B#5.B#5#5`C`C`5`Z.t`s#2.l.V.V`1a4#v`I.R#v.T#5.Q.V.V.Q.Q`F`a#I`xadaw.faPaT.m#I`a`a.c`q.`.``dazaW.rahaJ",
"``#A.C``#5.B.B.B.B.B.B.B#5#5am`C.M#8.r.L#t#5.V.Vai#T.l.R#v.Ham.V.V.Q.Q.Q#x#Y#I#I`6.mac`xaT`x.e.e#E.c.c.`.``daWaW`p`c`Y`Y",
".B`4av``#5.B.B.B.B.B.B#5#5`Cam`1#t#2`s#2#s.V.Q#X#7`S`c#TaY.Q.V.Q.Q.Q.Q.8#Y#Y`O#n.faPaj.m.f`faO#E`a.c.3.`.``7#VaD`YaiaR#X",
"#5.A`4``#5.B.B.B.B.B#5#5#5`C`C.l`3.w`v.O#5.V`1.E.E.5#T#0am.V.Q.Q.Q.Q.8#Y#`#Yax#xaj`xaTac`faO.e`a`a`q.ZauaAaXaa`paz`S`8`Y",
"`Ca3`4``#5.B.B.B.B#5.B#5#5`C`C.h#2.h`Z#X.V.Qah#7.l.E`X#5.Q.Q.Q.Q.Q`F.3`H.ca8#R.7aP`kac`f.e.e#E#Yas.k`M.Z`daV.paW`c`Y`y`v",
"#5.A.A``#5.B.B.B.B#5.B#5#5`Cam`v#8ah#7.V.V`1aEaZaz#3.V.V.Q.Q.Q.Q.V#W#W`aaGat`f#I`kaP`f.f.0.c`has#W#W.`araV`p`X.E.Lai.5.V",
"#5`4av``#5.B.B.B.B#5.B#5#5am`1`Y#T`8`yam.V.5#v.la4`7am.Q.Q.Q.Qam`q`q`q#Z`H.Q#`.7.m`f.f`f`H#L#YaU.o.T`d.I`E.R`X`S`l#v.V`1",
".B.hab``#5.B.B.B.B#5.B#5`C`C#s`y.OaZ`8am.V.N`n`S#oam.Q.Q.Q.Q.Qap.``J.o`0am`a.7`6ac.f#xaq#L`aa1.3.Z`maA`U.p`G.Q.HaY`n.l.V",
"``ah.L``#5.B.B.B.B#5.B#5`C`C.d.O`Y`y.l.Q`5.EazaD`7am.Q.Q.Q.Q.Q.Z.Z.caQa6`T#``O`Oac`f#I#n#I#Y.3.G`m.Z#Z.V.V.Vap#m`I.l.K.5",
"``.l.O``#5.B.B.B.B#5.B#5`C#5.l.OaZ.O`1.Q.p.z.5.z.V.Q.Q.Q.Q.Q.W.`#W.kas#5#E#E#n.f.0.f#n#n.e.o#Pa0aB.7.U`F`T`T.V#NaXaz.l`8",
"```5`y.V.B#5.B.B.B#5.B#5`C`C`s.#.sa4am.V.Iaa.2`U#5.Q.Q.Q.Q.Q.`.Z.T#qaH`T`H#I#l.f.0#lax#l#Y`0`J#`#`.0a8`Ham`T.V.V`l.2.N`S",
".B.u`YaK.B.B.B.B.B#5.B#5`C`C.5.#.s.Kam`G`Eaz`EaKam.Q.Q.Q.Qap.`.Z.x`Jam.0`a#n.7.f.0`Qa8`a.J.U.8aO`Q`T#`aQ#Cam.V`T.VaY.laR",
".B.V.N#X``.B.B.B.B#5.B#5`C`C#X.#.s.s`C.5.R`Iaoam.Q.Q.Q.Qamar.``q#qa6.Q.c`a#n.e.f.7a8ay`H.UaQ.0#R#n.0#x.oaQ#W.V.Q.V.V.V`1",
".B`C`paW``#5.B.B.B.B.B#5`C`C`S.#.s.2am`7`U`d.2#5.Q.Q.Q.Q.VaV.Z`q.gam`T.c`Haq.f.e#la8#``0aQ`0#Y.QaO`Q`F#x#W.G#m`daK`1.V.V"
};
