/* XPM */
static char *Fur -- envelopes (64X64)_xpm[] = {
/* width height num_colors chars_per_pixel */
"    64    64      256            2",
/* colors */
"`` c #070307",
"`. c #6c806a",
"`# c #7c2d79",
"`a c #7c5674",
"`b c #3c424c",
"`c c #98bea4",
"`d c #b655af",
"`e c #471d48",
"`f c #ae45ad",
"`g c #b48090",
"`h c #47314d",
"`i c #7f4081",
"`j c #bb6dab",
"`k c #8b55a1",
"`l c #83408d",
"`m c #84a28c",
"`n c #bca2b8",
"`o c #4c6377",
"`p c #8d6bab",
"`q c #682f69",
"`r c #bb54be",
"`s c #322334",
"`t c #974097",
"`u c #240a24",
"`v c #ccc0cc",
"`w c #642863",
"`x c #61446c",
"`y c #e088a2",
"`z c #9e54a6",
"`A c #d458cf",
"`B c #8c8299",
"`C c #492349",
"`D c #9b4c98",
"`E c #dcdcd0",
"`F c #6b3175",
"`G c #c442b4",
"`H c #d47a84",
"`I c #943a8f",
"`J c #604d88",
"`K c #846a8c",
"`L c #ba80cb",
"`M c #90a0c8",
"`N c #b44cbc",
"`O c #c361c5",
"`P c #2b162e",
"`Q c #582458",
"`R c #573d51",
"`S c #a061a8",
"`T c #1a0e1c",
"`U c #b76fc2",
"`V c #7c357b",
"`W c #e4aaa4",
"`X c #9680bc",
"`Y c #9b43a4",
"`Z c #964182",
"`0 c #a16dac",
"`1 c #f0bcc0",
"`2 c #5f6597",
"`3 c #813586",
"`4 c #150614",
"`5 c #b45e7c",
"`6 c #6e3c7b",
"`7 c #af4cb0",
"`8 c #583357",
".` c #c754c6",
".. c #61565c",
".# c #804a8c",
".a c #9f5a87",
".b c #6b3b69",
".c c #7182b1",
".d c #b9968d",
".e c #8063a4",
".f c #f7ddef",
".g c #b779a9",
".h c #ac55af",
".i c #d461cf",
".j c #a14ba7",
".k c #a7a3d9",
".l c #381839",
".m c #8f92bf",
".n c #8c398d",
".o c #48525c",
".p c #b0bcc0",
".q c #844e60",
".r c #a4459c",
".s c #5b2865",
".t c #e08ad4",
".u c #cc56d5",
".v c #a2a1ae",
".w c #74316a",
".x c #994698",
".y c #4b2356",
".z c #ce92d0",
".A c #e4abe7",
".B c #9c7ab0",
".C c #fcd1cc",
".D c #7e5686",
".E c #551e55",
".F c #8c417f",
".G c #8c4091",
".H c #69636f",
".I c #2a102b",
".J c #742a74",
".K c #a26e7a",
".L c #593169",
".M c #4f475a",
".N c #b4aeac",
".O c #6a2a6d",
".P c #743176",
".Q c #61588f",
".R c #a563b6",
".S c #3c1e3d",
".T c #0b0a0f",
".U c #734976",
".V c #5b2a5a",
".W c #833a87",
".X c #b862b0",
".Y c #bc4db4",
".Z c #ca5ac8",
".0 c #846086",
".1 c #a9777b",
".2 c #c456b4",
".3 c #c47291",
".4 c #a25aa2",
".5 c #d080c4",
".6 c #b679cc",
".7 c #170a17",
".8 c #514674",
"#` c #cc62b4",
"#. c #c4cac4",
"## c #9c9a9c",
"#a c #dccacc",
"#b c #da6cd4",
"#c c #8cbad4",
"#d c #818eb7",
"#e c #6c769f",
"#f c #dc9aec",
"#g c #848294",
"#h c #7cb2cc",
"#i c #e0b0c4",
"#j c #545e9c",
"#k c #bcc4f8",
"#l c #d4b2a4",
"#m c #90b29c",
"#n c #343a44",
"#o c #6c7860",
"#p c #d087ac",
"#q c #cfc6e9",
"#r c #ac817c",
"#s c #f7c2f1",
"#t c #ac80c8",
"#u c #7c7aa4",
"#v c #f0eefc",
"#w c #acccf0",
"#x c #a5b1dc",
"#y c #706498",
"#z c #8080b0",
"#A c #c993a2",
"#B c #678999",
"#C c #df97b1",
"#D c #9cafac",
"#E c #9c6264",
"#F c #f1caec",
"#G c #6e5478",
"#H c #a490c0",
"#I c #ec86d4",
"#J c #6c568c",
"#K c #9476c8",
"#L c #b7b1da",
"#M c #bc85af",
"#N c #e4c3c0",
"#O c #dcdbf7",
"#P c #94a2a8",
"#Q c #a4bfec",
"#R c #91b1e5",
"#S c #7c927c",
"#T c #58727c",
"#U c #d47adc",
"#V c #d19fbc",
"#W c #c1d1f4",
"#X c #fc9af4",
"#Y c #392949",
"#Z c #e4a0c8",
"#0 c #9472cc",
"#1 c #c96fce",
"#2 c #d0cef8",
"#3 c #a8879a",
"#4 c #7c86d4",
"#5 c #74448c",
"#6 c #9c3aa4",
"#7 c #ca78a6",
"#8 c #9261af",
"a` c #8e568c",
"a. c #c54dc6",
"a# c #ecc2c4",
"aa c #f0b4e4",
"ab c #844e84",
"ac c #a66fc1",
"ad c #6c73b4",
"ae c #6c7284",
"af c #60597a",
"ag c #9293d6",
"ah c #d086e0",
"ai c #8098d4",
"aj c #745ea4",
"ak c #eeb3c6",
"al c #bf8994",
"am c #c28ad8",
"an c #908ab8",
"ao c #f6e4f2",
"ap c #6c6c64",
"aq c #fcd5e9",
"ar c #994c7c",
"as c #543c6c",
"at c #a777cc",
"au c #a46684",
"av c #a4bab8",
"aw c #5c6684",
"ax c #ec8e9c",
"ay c #e466e4",
"az c #bcc2d4",
"aA c #aca2af",
"aB c #604c60",
"aC c #90aae0",
"aD c #3c5e64",
"aE c #6c5e5c",
"aF c #e4e6fc",
"aG c #e7a7c4",
"aH c #7ca2bc",
"aI c #4a3164",
"aJ c #d859e0",
"aK c #c76eae",
"aL c #f48af4",
"aM c #847a84",
"aN c #3c4e6c",
"aO c #7c7ac8",
"aP c #8c4c9e",
"aQ c #e46ed4",
"aR c #d44ed4",
"aS c #fcc6b4",
"aT c #9456aa",
"aU c #cc63c9",
"aV c #ac707c",
"aW c #c4b6d4",
"aX c #746eac",
"aY c #8088b8",
"aZ c #a19ac1",
"a0 c #d2a9be",
"a1 c #8c5654",
"a2 c #bc4dbf",
"a3 c #ac66a4",
"a4 c #8c3a6c",
"a5 c #a444a6",
"a6 c #ac6aa4",
"a7 c #d862de",
"a8 c #e08ce8",
/* pixels */
"````````````````````````````````````````````````````````````````````````````.T```e`Q`Q`Q`Q`w.P`i`F.s`e.l.I.I`Q`w`q`q.P`V.Par`H`V",
"``````````````````````````````````````````````````````````````````````````.T```u`Q.V.V`w`w.P`V`l.O`Q`e.l.l`u`C`w`q.P.P`#`Va4`y.F",
"``````````````````````````````````````````````````````````````````````````.T``.l`Q`Q`w`w`w`V.W`i`q`Q`e.l.l`u`e`w.P`V.W.G.G`Zaxar",
"``````````````````````````````````````````````````````````````````````.T.T.T`4`C`Q`w`w`w.P`V.a.q`Q`Q`e`e.l.I.l`q.P`V.W.G`t`I`y`5",
"``````````````````````````````````````````````````````````````````````.T``.T```Q`Q`w.O.O`V`3aVa1`Q`Q`C`e.l.I.l`w.P`V.n`t`t`I`y.3",
"`````````````````````````````````````````````````````````````4`P.l.l`P`P`u.7`4`Q`Q`w.O.O`3.GaV#E`Q`Q`C`e`e.l.I.O.P`V.n`t`t#6#7#p",
"`````````````````````````````````````````````````````````4.S`C`e.l.l.l.I`u`u`4`Q`Q`w.O.P.W.x.1.K`Q`Q`C`C`e.l.l`q.P.W.G`t`Y#6.3#C",
"```````````````````````````````````````````````````````4`C`C`e`e`e.l.l.I.I.7`4.y`Q`w.O`V.n.x.1.1.V`Q`C`e`e.l.S.O.P.W.G`t.x#6.3aG",
"`````````````````````````````````````````````````````4`Q`Q`Q.E`C`e`e.l.I.I`T`4.y`Q`w.O`l.x.n.K#r`w`Q`Q`e`e`e.y`w.P`3.n`t`Ya5`j#i",
"`````````````````````````````````````````````````````C`Q`Q`Q`Q`C`e`e.l.I.I`u`4`C.V`w.O`V`z`3.K#r.V.s.V`C`e.V.E`q`V.W`t`Y`Ya5`jak",
"``````````````````````````````````````````````````.l`Q`Q`Q`Q`Q`Q`e.S.l.I.I.7`4.y.s`w.P`V.G`3.K#r.V.s`Q`q`q.V.E`q`V.W`t`Ya5a5`jak",
"````````````````````````````````````````````.T.T```Q`Q.V`w`Q`Q.E`C`8`C`P.I.7`4`Q`w.O`V.W`l.P.1al`q.P`V.P.w`q`Q`w`V.n`t`Ya5`f`jak",
"`````````````````````````````````````````````````u`Q`Q`w`Q`Q.E`CaE`h.l.l.I`u`4`Q`w.P`3`t`t`3.1.d`q`3`3`V.P`q`Q.O`V.n`ta5`f`f#7#i",
"`````````````````````````````````4`T`T.7.7`4`4.T.l`w.s`w.s`Q`QaB..`C.S.l.I`u`4`Q`w.P.n.x`t.n`g.d`q`3`3`V.P`q`Q.w`V`t`Ya5`7`f#paG",
"`````````````````````````````u.l.l.l.I`u`T.7.7`4`C`w.s`w.s.V`eapaB`e.l`P.I`T.7`Q`w`V.n.j`t.nal.d.w.n.n`V`V`F`w.P.F`Ia5`f`7`f#C#Z",
"````````````````````````.I`C`e`e.l.l.I`u`T.7.T```Q`Q.V`w.s`Q.V#o.M`e.l`P.I`u`T`Q.O`V`t.j`t.n#A.d.w.n.n.W`V.P.O`V.F`D.r`7`N`faG#A",
"``````````````````````.l.y`e`e.S.l.l.I`u`T.7.T.7`Q`Q`Q`w.V`Q`R`.`R`e.l.l.I`T`u.V`q.P`t.j`t.n#V.d.w`t.G`3`V.P`q`V.n.x`7`7`N`f#s#M",
"````````````````````.I.y`e`e`e`e.l.l.I`u.7.T.T`u`Q`Q.s`w.s`Q..`.`h`e.S.l`P`T`u`q`F`V.W.xa5`I#i.d`V`t.G.n`3.P.P`V`t.x`7`d.Y`7aqau",
"```````````````````4`Q.E`Q`C`e`e.l`P.I`u.7.T```P`Q.V`w`w.L`w.H`.`h`e.S.l.I`u`e`q.w.W.F`Z`t.na##3`Va5`t`t.W.P.P.W`t.r`f`7.2`d.far",
"```````````````````C`Q`Q`Q`C`e`e.l#Y`s.I.7.T`4.S`Q`w`w`q`F`w`.#o#Y.E`e`e`e`C`e.P`V.G`D.x.x.Faq.K.Fa5.x`t.n`V.P`3`ta5`7`N.YaKaq`Z",
"`4`4````````````.I`Q`Q`Q`Q.y`e`s.o`s`P`T.7.7.T`e.s`w.O`F.P.O#Sap.V`q.L`Q`Q`e`Q`F`V`t.h.x.jarao.0.G`f.r`t.G`V`V.n`Ya5`7`Na2`y#N`Z",
".7`4`4.T.T``.T```C`Q`Q`Q`Q.E`e`o#n`P.I`T`4.7.7.y.s`w`q`F`#`F`m.H.V.P`F`w`Q.y`Q.P`V`t`da5a5.a.f.q`Da5a5`Y`I`3`3`t`f`7`7`N`faa#A.r",
".7.T```````````u`Q`Q`Q`Q`Q`e.MaD`s`P`u.7.T`4`4.V.s`w`q.P`#.U#m..`q`V.P`q`w`Q`w.P.W`Y`da5a5a3.f.b.ha5a5`Y`t.W`3`Y`7`Na2a2`7.f.a`7",
"`4`````````````e`Q`Q`Q`Q`Q`e#T`b.l.I`u.7.T`4.7`w`q`q.P.P`V.U`c.M.P`3`V.P`q`Q`q`V.n.j`d`fa5#M#a.w.X`d.j`Y`t.n.n.j`Na2.`a.aKaq`I`r",
".T```````````4`Q`Q`Q`Q`Q.E.M#T`h.l.I`u.7.7.7`u.L`q`F.P`V`V.H`c`R`V.n`3`V`q`w.P`3.G.x`7`f`Ya0a0`V`7`d.X`D.G.G`I`N.Y`r.`a.#Za0`I.Z",
".T.T`````````u`Q`Q`Q`Q`Q`eaw`o.S.l`P`T.7.7.7.l`w`q.P`V`V`V`B#m`8`l.n`3`V.P`q`V.n`t.j.ja5`t#F#3.F`7.j.j.h`D.F`t`7`ra2a..2aqau`f.u",
".T.T.T.T.T.T.l`Q`Q`Q`Q`Q.y#B.o.S.S.I`u`4.7`P`e.O`q.P`V`3`V.v#P`8`l`l.W`V.P.P.W`ta5`7`7`7`Dao.0`Y`7`7a5`t`Z`Z`d`d`r.`a2aK.C.F.`a.",
"``.T.T.T.T```C`Q`Q`Q`Q`was#B.M`C`Q`e.l.l.l.S.l`q`F`V`V.n`6az`B.L`D.#`l`V.P.P.G`Y`7`O`N`Na3.f.U`7`7a5.x`t`t.n.X#b.i.``d`1al`I.u.2",
"````.T.T.T.T.V.s.V.s`w`waw#B`h`Q.s`Q.y`e`C.l`Q.O`F`V`3.n`i#Oae.w.xaPab`i.P`V`ta5`NaU.``7.z`v`V`r`N`fa5`t`I`t`7a2#`.iaK.C.F.`.`.`",
"``````.T.T.7.V.s.s.s`q`w.c#e`h`w`q.s`Q`Q`Q.l`q.P.P`V.W`I.#aoaf`V`t.G.F.#`i`V.x.j`Na7a.`7#F#3.n`r`N`7a5`Y`Ya5`ra..``rak#A.xa7.`.`",
"````.T.T``.I`Q.s`w`q`q.saHaw.y`F`q`q.s.V.V.E.P`V`V`3.n`I`p#O.8`I`t`t.n`3`i.F.4`z`7#ba..hao`a`f`r`N`fa5`Y`t`N.Z`A.u#7aS.F.ZayaQ#b",
".T.T.T.T.T.l`w.s`w`q`F.b#haf`Q`F`F`q`w`q`Q`w.W.W`l.G`t`I#H`v`8`Y`t`t.n`3`3.G.4.X.X`r`d#M#a.w.``d`N`7a5`Y#6.Z`AaJ#``1`ga5a7`A`A.Z",
"`````4`4```e`w`w.O`q`#.Q#c.8.V`6`F`q`w.O`w`F`l.G`t`t`Y`IaWaA`q`Y`t`t.n`3.W`ta5`7.X#1`j#a#3`t`ra2`N`7a5a5a5.iaJ.u#C`W.na7aJ`A.ua.",
".7`P`4.T```Q`w`w.O`F.JaX#Ras`q`6`6.b`q`q`w`V.G`t`Ya5a5`t#O#g.P`Y`t.n`3.W.W.x.j`N`r.ia6`E.U.h`da2`N`7a5`Y`raJ`A#p`1ar.`aJaJ.u.`.Y",
".l.I.T.T`4.V`w`q.O.P.J`M`MaI.P`V`6`6.b.b.L`l`t`t`Ya5`faT#v#G.Wa5`Y`t.n`3.n`Y`f`Na..``n.N`VaU#1aU`O`d.j`t.Z`AaKa#au`t.i`A.2#`aK#7",
"`e.I.7`4`T.L.O`F.P`V.J#Q#d.y`i`3.P`F`6`x#G.#`t`Y.j`7`f`X#O.b.x.ja5`Y.n.G`t`7`N`ra..X`E.Da5.u`r`r`d.X.X#1#Xal`1.1.jaL#I#I.t.5.Xar",
"`e.l.l.I.l`q.O.w.P`V`F#W#e.V.W`V`V.P`F`q.Ua`aTa`.j.j`7#L#L.L`d`7a5`Y.G`l`Y.Y`r.`.uaA`n`6.Z.Z.`.``d`7a5`r#p#N#r`Z#I#baK`d`7.r`Y`Y",
"`e.l.l.l`Q`F.J.P.P`V#5#Oaw.L.W.W`V.P.P`F`i.G`D`S.X.R`D#O`B.P`r`7`f`Y`t.n`Na2.`aRa3#..0a5`A.u.`a.`Na5.G#V#N.K`t.Za.a2`N`N`7.j`t`I",
"`C`e`e`e`q`V`V`V`V`#.e#O.8`q.W`V`V.P.P.P`t`t`YaP`Sac.BaFaf.G`7`7a5`Y`Y`t`r`r.`.2.v##.b`AaR.`a2`N.r`Da0#la``f`A.`a..Y`N`f`Y.n`3.x",
"`e.y`Q.E.P`3`3`l.n`3.m#q.8`F`3`V.P.P`F.P`t`Ya5a5.j`faZ#qas`L.6.j.j.x`t.x.`.`.`.B.p#G`f.ua.`d.h.4a6.1`g`Z`r.ua.`r`N`7.j`t.n`V`3`I",
"#Y.y`w.V.W.W.n`t`t`3#L#Las`V`V.P.P`q`F`V`t`Ya5`f`N.j#Wan.b.Xa3.X.R.4aT.X`O`O.XavaM`iaU.X`U.g.g`0a`.x`7.`a.a2`N`7`f.x`t`3`#`V.W`V",
".8aNaI.L.n.G.G`t`Y.G#2aZaI.x`l`V.O`q.O.W.G`t.x.j`f#8#O#J`l`7`7.ja5`D`Da8aL.z#D##.ba8a8.5`U`SaP`l`I`ra2`N`N`f`fa5`t.n`V.P.P.P`F.O",
".8`o`2`J`l`l`t`Y`Y.x.f`X.L.x.G.W.P`F.P`l.G`t`Ya5a5#H#x.b`7a2`7`7a5.r.r.Z.h.vaAaB`d`O.h`z.x`t`I.n`f`f`fa5a5`Y`t.n`V.P`w.s.V`Q`Q`e",
"`Q.L.Qaj`k`kaP`Y.j`z#v#y`F`f`Y`t`3`3`3`Y`Ya5`f`N.j#W#u.P.`a2`7`fa5`Y`r.`aZ#D#G`f.u#b`r`7.x`I.n.G`t`t`I.W`3.P.P`w`Q`C.l.l.l.I`u.7",
"`Q`w`w`i`k#8.R`SaP`X.f`J`i.j`Y`t`l.W`ta5a5`7`7`Gac#w.U`D`r`N`7a5`Ya5.R.v#D`a.j.`a..i`ra5.G.n`3`Z.n.W`V.P`F`w`Q`e.l.7.7.7.7.7.7.7",
"`Q.V.O.W.GaPaTacat.k#qas`ta5a5`t.G.na5`f`7`N`N`7#L#d.O`ra2`N`fa5`t.0.p#P.U`D`r`Na2`O.h`t`3`V.n`3`3`V.w`w`Q`C.l`u.7.7.7.7.7`4`4`4",
".y.V.O.n`I`t.x.jaT#k.k.L.R`zaP.G`t.n.j`N`Na2a2`0#Q.Q.Ga2`7.j.x.x.0av#g`ia5`r`N`f`7`d.j`3.P`V.P`F`w`Q`Q`e.l`u.7.7.7.7`4.7`4`4`4`4",
"`e`Q`w.n`I`t`Y`Y`Y#O`X.samam.6.RaP.#`z`7.h`N.h#xan`q.h`7`z.4`0`p`K.D`l`7`7`fa5`t`Y.j.G.P`q`w.V`Q`C.l`P`u.7.7.7`4`4`4.T.T.T.T.T.T",
"`P`C`w`3.n`t`Ya5aTaF`2.P.j`z`Sac`z`0ahah.6#1`X#xaf`k`L`L#t`0a``i`l`t`Y`Y`t.G.G`V`V`V.b`w`e.l`P.I`T.7`4.7.7.7.7.7`4.T.T.T.T.T.T.T",
".7.7.V`V`3.n`t`t#K#2`J`V.j.j.G`l.G`D`U#1#Uam#x#u.L`L`U`S`D`l`i.W`Y`t`t.n`3`V.P`w`q.W#V`w.I`T`T.7.7.7.7`4.T.T.T.T.T.T.T.T.T.T.T.T",
".7`4.V`F`V.W.G`I.k#xas.G`Y`t`t`t.G.j`ra2`7ag`M`x.j.h.j`D`Y.G`3`t`t.n.W`V.P`q.V`C`Q`l#F`w`P.7.7.7.7`4.7`4.T.T.T.T.T.T.T.T.T.T.T.T",
".7.7`q.O.O.P`3`3#k#zaI`t#6`t`t.G`I.Ya2a2#K#R#y.W`r`7a5`Y`I.W.W.G.W`V.P`q`w`Q`C`P`e`V#s`w.l.7.7`4.7.T.T.T.T.T.T.T.T.T````````````",
"`u.I`q`F`F.P`V`6#w`2.s`t`t`t.G`t`t.ha2.R#x#u`F`7`7a5.x.G.W`V.W`V.P`F`w`Q`C.l`u`T.l`##s`F.l.7.7.7.T.T.T.T.T.T.T.T.T.T````````````",
"`Q`q`V`V.P`V`Vaj#Q.8`F`Y`t`t.G`l`Y`G#8aCaY`F.j`7a5`t.n`V.P.P.P.O.V`Q`C.l`u.7`T.7.l.Paa.#`e`4`4.T.T.T.T.T.T.T.T.T````````````````",
".P`3.G`I.G`t.nagagas.W`Y`t.n.n.Wa5#8aC#d`x`I`f`t`t.W`V`F`q`w`Q`e.S.I`T.7.7.7.7.7`u.P.z`S`e`4`4.T.T.T.T.T.T.T``````.T````````````",
"`3.G`t`t`t`Y`t#Rad.s`D#6`t.n.n`3`p#RaY`x.W`Y`t.W`V`q`w`Q.S.l.I`T.7.7.7`4.7.7`4.7.7.O`L`U.E`4`4.T``.T````````````````````````````",
".n`t.ra5a5`faT#R.Q`w.j`Y`t.n`i`p#R.c`6`V.n`V.P`q`Q`Q`C`u.7.7.7.7.7.7.7.7.7.7`4.7`4`Q`S.z`Q`T.T.T.T.T````````````````````````````",
"`i.G`Y`Ya5a5#Kaias`3a5`t`laP.eanaX`F.W.W`3.P`q`Q.y`e`u.7.7.7.7`4.7.T.T.T.T.T.T.T`4.y.W.A`Q.I.T.T.T``.T.T````````````````````````",
"`p#8aTaP.jaPagadaI`kaT#8`p.e#J#J`F`I.n`V.P`q`Q`C`C`u.7.7`4`4`4`4.T.T.T.T.T.T.T.T.7.S.P.A`w.l.T.T.T``````````````````````````````",
"`pat`L#t.6#0ai`J.Latac.e.D#5.P.G`I`3`V.P`q`Q`C`e.7.7.7`4.T.T.T.T.T.T.T.T.T.T.T.T.T.I.O#f`6.l`4``.T``````````````````````````````",
".WaPaPaTaTaOaOas#5aP.G`i`6`V.n.n`3.P`F`q`Q`e.l`4.7.T.T`4.T.T.T.T.T.T.T.T.T.T.T.T.T`u`q`U`k`e`4``````````````````````````````````",
".n.G`t`taP#4`2.y`D.G.G.W.W`V.W`V.P`q`Q`C`e.I`4.7.T.T.T.T.T.T.T.T.T.T.T.T.T.T.T.T```4.L.4`0`C`4``````````````````````````````````",
".W.n`t#6`k.c.8`w`t.n`3`V.P.P.P`q`w`Q`e.l.7`4.7.T.T.T.T.T.T.T.T.T.T.T.T.T.T.T.T.T.T```C`l`L`Q`u``````````````````````````````````",
".P`V.n.Wad#j.y.P.W`V.w`q`w`w`Q`C.S.l`T`4.T.T.T``.T.T.T.T.T.T.T.T````````````````.T``.l.Oam`w.I``````````````````````````````````"
};
